<?xml version="1.0" encoding="utf-8"?>
<!-- Generator: Adobe Illustrator 25.4.1, SVG Export Plug-In . SVG Version: 6.00 Build 0)  -->
<svg version="1.1" id="Layer_1" xmlns="http://www.w3.org/2000/svg" xmlns:xlink="http://www.w3.org/1999/xlink" x="0px" y="0px"
	 viewBox="0 0 1440 75.3" xml:space="preserve" preserveAspectRatio="xMinYMax">
<style type="text/css">
	.st0{fill:#FFFFFF;}
</style>
<path class="st0" d="M0,75.3h1440V35.2c-174.2-35.8-349.8-47.1-531.5-20.7c-138,20-274.1,51.7-414.4,54
	C330.8,71.1,171,48.9,11.9,18.1C-0.5,16.1,0,16,0,16S0,75.3,0,75.3z"/>
</svg>
